{
	"id": "a2083114-f982-4c69-a170-c85c5e666951",
	"name": "Inventions Registry Env.",
	"values": [
		{
			"key": "SERVICE_HOST",
			"value": "localhost",
			"description": "",
			"enabled": true
		},
		{
			"key": "SERVICE_PORT",
			"value": "8080",
			"description": "",
			"enabled": true
		}
	],
	"_postman_variable_scope": "environment",
	"_postman_exported_at": "2019-03-18T09:47:34.086Z",
	"_postman_exported_using": "Postman/6.7.3"
}