{
	"info": {
		"_postman_id": "eec9ff05-a897-4cbc-a7f4-3d2314952a7b",
		"name": "Inventions registry",
		"schema": "https://schema.getpostman.com/json/collection/v2.1.0/collection.json"
	},
	"item": [
		{
			"name": "Read all inventions",
			"request": {
				"method": "GET",
				"header": [],
				"body": {
					"mode": "raw",
					"raw": ""
				},
				"url": {
					"raw": "{{SERVICE_HOST}}:{{SERVICE_PORT}}/inventions",
					"host": [
						"{{SERVICE_HOST}}"
					],
					"port": "{{SERVICE_PORT}}",
					"path": [
						"inventions"
					]
				}
			},
			"response": []
		},
		{
			"name": "Create one invention",
			"request": {
				"method": "POST",
				"header": [
					{
						"key": "Content-Type",
						"name": "Content-Type",
						"value": "application/json",
						"type": "text"
					}
				],
				"body": {
					"mode": "raw",
					"raw": "{\n    \"date\": 773,\n    \"name\": \"La diffusion des chiffres arabes en Occident\",\n    \"origin\": \"Inde\",\n    \"tags\": [\n        \"Mathématiques\",\n        \"Chiffres\"\n    ]\n}"
				},
				"url": {
					"raw": "{{SERVICE_HOST}}:{{SERVICE_PORT}}/inventions",
					"host": [
						"{{SERVICE_HOST}}"
					],
					"port": "{{SERVICE_PORT}}",
					"path": [
						"inventions"
					]
				}
			},
			"response": []
		},
		{
			"name": "Read one invention",
			"request": {
				"method": "GET",
				"header": [],
				"body": {
					"mode": "raw",
					"raw": ""
				},
				"url": {
					"raw": "{{SERVICE_HOST}}:{{SERVICE_PORT}}/inventions/1",
					"host": [
						"{{SERVICE_HOST}}"
					],
					"port": "{{SERVICE_PORT}}",
					"path": [
						"inventions",
						"1"
					]
				}
			},
			"response": []
		},
		{
			"name": "Delete one invention",
			"request": {
				"method": "DELETE",
				"header": [],
				"body": {
					"mode": "raw",
					"raw": ""
				},
				"url": {
					"raw": "{{SERVICE_HOST}}:{{SERVICE_PORT}}/inventions/1",
					"host": [
						"{{SERVICE_HOST}}"
					],
					"port": "{{SERVICE_PORT}}",
					"path": [
						"inventions",
						"1"
					]
				}
			},
			"response": []
		},
		{
			"name": "Reset the inventions base",
			"request": {
				"method": "PUT",
				"header": [],
				"body": {
					"mode": "raw",
					"raw": ""
				},
				"url": {
					"raw": "{{SERVICE_HOST}}:{{SERVICE_PORT}}/inventions/init",
					"host": [
						"{{SERVICE_HOST}}"
					],
					"port": "{{SERVICE_PORT}}",
					"path": [
						"inventions",
						"init"
					]
				}
			},
			"response": []
		},
		{
			"name": "Read all inventions with one tag",
			"request": {
				"method": "GET",
				"header": [],
				"body": {
					"mode": "raw",
					"raw": ""
				},
				"url": {
					"raw": "{{SERVICE_HOST}}:{{SERVICE_PORT}}/inventions/tag/Papier",
					"host": [
						"{{SERVICE_HOST}}"
					],
					"port": "{{SERVICE_PORT}}",
					"path": [
						"inventions",
						"tag",
						"Papier"
					]
				}
			},
			"response": []
		},
		{
			"name": "Find the most similar invention",
			"request": {
				"method": "GET",
				"header": [],
				"body": {
					"mode": "raw",
					"raw": ""
				},
				"url": {
					"raw": "{{SERVICE_HOST}}:{{SERVICE_PORT}}/inventions/1/discovery",
					"host": [
						"{{SERVICE_HOST}}"
					],
					"port": "{{SERVICE_PORT}}",
					"path": [
						"inventions",
						"1",
						"discovery"
					]
				}
			},
			"response": []
		}
	]
}